{
  "accessors": [
    {
      "bufferView": 2,
      "componentType": 5126,
      "count": 212,
      "max": [
        62.19580078125,
        68.513496398925781,
        0.68769997358322144
      ],
      "min": [
        -59.468700408935547,
        -57.602001190185547,
        0
      ],
      "type": "VEC3"
    },
    {
      "bufferView": 2,
      "byteOffset": 2544,
      "componentType": 5126,
      "count": 212,
      "max": [
        0.99989485740661621,
        0.99995183944702148,
        0.99998605251312256
      ],
      "min": [
        -0.99989485740661621,
        -1,
        -1
      ],
      "type": "VEC3"
    },
    {
      "bufferView": 1,
      "componentType": 5126,
      "count": 212,
      "max": [
        0,
        0
      ],
      "min": [
        0,
        0
      ],
      "type": "VEC2"
    },
    {
      "bufferView": 0,
      "componentType": 5125,
      "count": 1260,
      "max": [
        211
      ],
      "min": [
        0
      ],
      "type": "SCALAR"
    },
    {
      "bufferView": 2,
      "byteOffset": 5088,
      "componentType": 5126,
      "count": 65532,
      "max": [
        62.384498596191406,
        68.833000183105469,
        3.4590001106262207
      ],
      "min": [
        -59.944000244140625,
        -58.596698760986328,
        -0.028899999335408211
      ],
      "type": "VEC3"
    },
    {
      "bufferView": 2,
      "byteOffset": 791472,
      "componentType": 5126,
      "count": 65532,
      "max": [
        1,
        1,
        0.99997830390930176
      ],
      "min": [
        -1,
        -0.999991774559021,
        -0.99999153614044189
      ],
      "type": "VEC3"
    },
    {
      "bufferView": 1,
      "byteOffset": 1696,
      "componentType": 5126,
      "count": 65532,
      "max": [
        0,
        0
      ],
      "min": [
        0,
        0
      ],
      "type": "VEC2"
    },
    {
      "bufferView": 0,
      "byteOffset": 5040,
      "componentType": 5125,
      "count": 308631,
      "max": [
        65531
      ],
      "min": [
        0
      ],
      "type": "SCALAR"
    },
    {
      "bufferView": 2,
      "byteOffset": 1577856,
      "componentType": 5126,
      "count": 65533,
      "max": [
        62.525398254394531,
        68.949302673339844,
        3.3027999401092529
      ],
      "min": [
        -59.627101898193359,
        -58.323101043701172,
        -0.023199999704957008
      ],
      "type": "VEC3"
    },
    {
      "bufferView": 2,
      "byteOffset": 2364252,
      "componentType": 5126,
      "count": 65533,
      "max": [
        1,
        0.99999785423278809,
        0.99999642372131348
      ],
      "min": [
        -0.99999904632568359,
        -0.99999904632568359,
        -0.99991023540496826
      ],
      "type": "VEC3"
    },
    {
      "bufferView": 1,
      "byteOffset": 525952,
      "componentType": 5126,
      "count": 65533,
      "max": [
        0,
        0
      ],
      "min": [
        0,
        0
      ],
      "type": "VEC2"
    },
    {
      "bufferView": 0,
      "byteOffset": 1239564,
      "componentType": 5125,
      "count": 306399,
      "max": [
        65532
      ],
      "min": [
        0
      ],
      "type": "SCALAR"
    },
    {
      "bufferView": 2,
      "byteOffset": 3150648,
      "componentType": 5126,
      "count": 65532,
      "max": [
        62.726600646972656,
        68.907600402832031,
        3.4033999443054199
      ],
      "min": [
        -59.901699066162109,
        -58.106098175048828,
        -0.025699999183416367
      ],
      "type": "VEC3"
    },
    {
      "bufferView": 2,
      "byteOffset": 3937032,
      "componentType": 5126,
      "count": 65532,
      "max": [
        1,
        0.99999558925628662,
        0.99999940395355225
      ],
      "min": [
        -0.99999451637268066,
        -0.99999940395355225,
        -0.99999547004699707
      ],
      "type": "VEC3"
    },
    {
      "bufferView": 1,
      "byteOffset": 1050216,
      "componentType": 5126,
      "count": 65532,
      "max": [
        0,
        0
      ],
      "min": [
        0,
        0
      ],
      "type": "VEC2"
    },
    {
      "bufferView": 0,
      "byteOffset": 2465160,
      "componentType": 5125,
      "count": 304824,
      "max": [
        65531
      ],
      "min": [
        0
      ],
      "type": "SCALAR"
    },
    {
      "bufferView": 2,
      "byteOffset": 4723416,
      "componentType": 5126,
      "count": 65532,
      "max": [
        62.461498260498047,
        68.848701477050781,
        3.3429000377655029
      ],
      "min": [
        -59.520000457763672,
        -57.905498504638672,
        -0.027300000190734863
      ],
      "type": "VEC3"
    },
    {
      "bufferView": 2,
      "byteOffset": 5509800,
      "componentType": 5126,
      "count": 65532,
      "max": [
        1,
        0.99999308586120605,
        0.99998915195465088
      ],
      "min": [
        -0.99999988079071045,
        -0.99999892711639404,
        -0.99999439716339111
      ],
      "type": "VEC3"
    },
    {
      "bufferView": 1,
      "byteOffset": 1574472,
      "componentType": 5126,
      "count": 65532,
      "max": [
        0,
        0
      ],
      "min": [
        0,
        0
      ],
      "type": "VEC2"
    },
    {
      "bufferView": 0,
      "byteOffset": 3684456,
      "componentType": 5125,
      "count": 304392,
      "max": [
        65531
      ],
      "min": [
        0
      ],
      "type": "SCALAR"
    },
    {
      "bufferView": 2,
      "byteOffset": 6296184,
      "componentType": 5126,
      "count": 65532,
      "max": [
        62.652999877929688,
        68.867996215820312,
        3.3185999393463135
      ],
      "min": [
        -59.877700805664062,
        -57.978401184082031,
        -0.024700000882148743
      ],
      "type": "VEC3"
    },
    {
      "bufferView": 2,
      "byteOffset": 7082568,
      "componentType": 5126,
      "count": 65532,
      "max": [
        1,
        0.99999701976776123,
        0.99998641014099121
      ],
      "min": [
        -0.99999868869781494,
        -1,
        -0.99999189376831055
      ],
      "type": "VEC3"
    },
    {
      "bufferView": 1,
      "byteOffset": 2098728,
      "componentType": 5126,
      "count": 65532,
      "max": [
        0,
        0
      ],
      "min": [
        0,
        0
      ],
      "type": "VEC2"
    },
    {
      "bufferView": 0,
      "byteOffset": 4902024,
      "componentType": 5125,
      "count": 303111,
      "max": [
        65531
      ],
      "min": [
        0
      ],
      "type": "SCALAR"
    },
    {
      "bufferView": 2,
      "byteOffset": 7868952,
      "componentType": 5126,
      "count": 65532,
      "max": [
        62.706298828125,
        68.757003784179688,
        3.3066000938415527
      ],
      "min": [
        -59.524101257324219,
        -58.691001892089844,
        -0.027400000020861626
      ],
      "type": "VEC3"
    },
    {
      "bufferView": 2,
      "byteOffset": 8655336,
      "componentType": 5126,
      "count": 65532,
      "max": [
        1,
        0.99999153614044189,
        0.9999927282333374
      ],
      "min": [
        -0.99998986721038818,
        -0.99999856948852539,
        -0.99993669986724854
      ],
      "type": "VEC3"
    },
    {
      "bufferView": 1,
      "byteOffset": 2622984,
      "componentType": 5126,
      "count": 65532,
      "max": [
        0,
        0
      ],
      "min": [
        0,
        0
      ],
      "type": "VEC2"
    },
    {
      "bufferView": 0,
      "byteOffset": 6114468,
      "componentType": 5125,
      "count": 303471,
      "max": [
        65531
      ],
      "min": [
        0
      ],
      "type": "SCALAR"
    },
    {
      "bufferView": 2,
      "byteOffset": 9441720,
      "componentType": 5126,
      "count": 65532,
      "max": [
        62.515899658203125,
        68.988502502441406,
        3.4698998928070068
      ],
      "min": [
        -59.530498504638672,
        -58.376899719238281,
        -0.025399999693036079
      ],
      "type": "VEC3"
    },
    {
      "bufferView": 2,
      "byteOffset": 10228104,
      "componentType": 5126,
      "count": 65532,
      "max": [
        1,
        0.99998974800109863,
        0.99996209144592285
      ],
      "min": [
        -0.99999678134918213,
        -0.99999499320983887,
        -0.99998509883880615
      ],
      "type": "VEC3"
    },
    {
      "bufferView": 1,
      "byteOffset": 3147240,
      "componentType": 5126,
      "count": 65532,
      "max": [
        0,
        0
      ],
      "min": [
        0,
        0
      ],
      "type": "VEC2"
    },
    {
      "bufferView": 0,
      "byteOffset": 7328352,
      "componentType": 5125,
      "count": 302007,
      "max": [
        65531
      ],
      "min": [
        0
      ],
      "type": "SCALAR"
    },
    {
      "bufferView": 2,
      "byteOffset": 11014488,
      "componentType": 5126,
      "count": 65532,
      "max": [
        62.313800811767578,
        69.263801574707031,
        3.3664999008178711
      ],
      "min": [
        -59.713798522949219,
        -58.516101837158203,
        -0.027100000530481339
      ],
      "type": "VEC3"
    },
    {
      "bufferView": 2,
      "byteOffset": 11800872,
      "componentType": 5126,
      "count": 65532,
      "max": [
        1,
        0.99999713897705078,
        0.99991047382354736
      ],
      "min": [
        -0.99999940395355225,
        -0.9999995231628418,
        -0.99998080730438232
      ],
      "type": "VEC3"
    },
    {
      "bufferView": 1,
      "byteOffset": 3671496,
      "componentType": 5126,
      "count": 65532,
      "max": [
        0,
        0
      ],
      "min": [
        0,
        0
      ],
      "type": "VEC2"
    },
    {
      "bufferView": 0,
      "byteOffset": 8536380,
      "componentType": 5125,
      "count": 300141,
      "max": [
        65531
      ],
      "min": [
        0
      ],
      "type": "SCALAR"
    },
    {
      "bufferView": 2,
      "byteOffset": 12587256,
      "componentType": 5126,
      "count": 65532,
      "max": [
        62.193901062011719,
        68.993896484375,
        3.355600118637085
      ],
      "min": [
        -59.790500640869141,
        -58.582099914550781,
        -0.024199999868869781
      ],
      "type": "VEC3"
    },
    {
      "bufferView": 2,
      "byteOffset": 13373640,
      "componentType": 5126,
      "count": 65532,
      "max": [
        1,
        0.99999988079071045,
        0.99995481967926025
      ],
      "min": [
        -0.99999499320983887,
        -0.99999344348907471,
        -0.9999852180480957
      ],
      "type": "VEC3"
    },
    {
      "bufferView": 1,
      "byteOffset": 4195752,
      "componentType": 5126,
      "count": 65532,
      "max": [
        0,
        0
      ],
      "min": [
        0,
        0
      ],
      "type": "VEC2"
    },
    {
      "bufferView": 0,
      "byteOffset": 9736944,
      "componentType": 5125,
      "count": 299529,
      "max": [
        65531
      ],
      "min": [
        0
      ],
      "type": "SCALAR"
    },
    {
      "bufferView": 2,
      "byteOffset": 14160024,
      "componentType": 5126,
      "count": 65532,
      "max": [
        62.463199615478516,
        69.309303283691406,
        3.3120999336242676
      ],
      "min": [
        -60.041900634765625,
        -58.065898895263672,
        -0.024900000542402267
      ],
      "type": "VEC3"
    },
    {
      "bufferView": 2,
      "byteOffset": 14946408,
      "componentType": 5126,
      "count": 65532,
      "max": [
        1,
        0.99999535083770752,
        0.99999463558197021
      ],
      "min": [
        -0.9999997615814209,
        -0.99998509883880615,
        -0.99997985363006592
      ],
      "type": "VEC3"
    },
    {
      "bufferView": 1,
      "byteOffset": 4720008,
      "componentType": 5126,
      "count": 65532,
      "max": [
        0,
        0
      ],
      "min": [
        0,
        0
      ],
      "type": "VEC2"
    },
    {
      "bufferView": 0,
      "byteOffset": 10935060,
      "componentType": 5125,
      "count": 298638,
      "max": [
        65531
      ],
      "min": [
        0
      ],
      "type": "SCALAR"
    },
    {
      "bufferView": 2,
      "byteOffset": 15732792,
      "componentType": 5126,
      "count": 65532,
      "max": [
        62.898601531982422,
        69.00579833984375,
        3.3355000019073486
      ],
      "min": [
        -59.945499420166016,
        -58.086799621582031,
        -0.025200000032782555
      ],
      "type": "VEC3"
    },
    {
      "bufferView": 2,
      "byteOffset": 16519176,
      "componentType": 5126,
      "count": 65532,
      "max": [
        1,
        0.99999916553497314,
        0.99999034404754639
      ],
      "min": [
        -0.99999666213989258,
        -0.99999582767486572,
        -0.99995839595794678
      ],
      "type": "VEC3"
    },
    {
      "bufferView": 1,
      "byteOffset": 5244264,
      "componentType": 5126,
      "count": 65532,
      "max": [
        0,
        0
      ],
      "min": [
        0,
        0
      ],
      "type": "VEC2"
    },
    {
      "bufferView": 0,
      "byteOffset": 12129612,
      "componentType": 5125,
      "count": 296832,
      "max": [
        65531
      ],
      "min": [
        0
      ],
      "type": "SCALAR"
    },
    {
      "bufferView": 2,
      "byteOffset": 17305560,
      "componentType": 5126,
      "count": 65532,
      "max": [
        62.521701812744141,
        69.166603088378906,
        3.3496999740600586
      ],
      "min": [
        -59.586799621582031,
        -58.221000671386719,
        -0.025499999523162842
      ],
      "type": "VEC3"
    },
    {
      "bufferView": 2,
      "byteOffset": 18091944,
      "componentType": 5126,
      "count": 65532,
      "max": [
        1,
        0.99999821186065674,
        0.99998056888580322
      ],
      "min": [
        -0.9999920129776001,
        -0.99999988079071045,
        -0.99994838237762451
      ],
      "type": "VEC3"
    },
    {
      "bufferView": 1,
      "byteOffset": 5768520,
      "componentType": 5126,
      "count": 65532,
      "max": [
        0,
        0
      ],
      "min": [
        0,
        0
      ],
      "type": "VEC2"
    },
    {
      "bufferView": 0,
      "byteOffset": 13316940,
      "componentType": 5125,
      "count": 295092,
      "max": [
        65531
      ],
      "min": [
        0
      ],
      "type": "SCALAR"
    },
    {
      "bufferView": 2,
      "byteOffset": 18878328,
      "componentType": 5126,
      "count": 65532,
      "max": [
        62.652801513671875,
        69.510902404785156,
        3.3961999416351318
      ],
      "min": [
        -59.721000671386719,
        -58.383899688720703,
        -0.025900000706315041
      ],
      "type": "VEC3"
    },
    {
      "bufferView": 2,
      "byteOffset": 19664712,
      "componentType": 5126,
      "count": 65532,
      "max": [
        1,
        1,
        0.99994659423828125
      ],
      "min": [
        -0.99999988079071045,
        -0.99998331069946289,
        -0.99993455410003662
      ],
      "type": "VEC3"
    },
    {
      "bufferView": 1,
      "byteOffset": 6292776,
      "componentType": 5126,
      "count": 65532,
      "max": [
        0,
        0
      ],
      "min": [
        0,
        0
      ],
      "type": "VEC2"
    },
    {
      "bufferView": 0,
      "byteOffset": 14497308,
      "componentType": 5125,
      "count": 291117,
      "max": [
        65531
      ],
      "min": [
        0
      ],
      "type": "SCALAR"
    },
    {
      "bufferView": 2,
      "byteOffset": 20451096,
      "componentType": 5126,
      "count": 65532,
      "max": [
        62.853801727294922,
        69.155296325683594,
        3.3143000602722168
      ],
      "min": [
        -59.52239990234375,
        -58.647098541259766,
        -0.026100000366568565
      ],
      "type": "VEC3"
    },
    {
      "bufferView": 2,
      "byteOffset": 21237480,
      "componentType": 5126,
      "count": 65532,
      "max": [
        1,
        0.9999927282333374,
        0.99999868869781494
      ],
      "min": [
        -0.99999666213989258,
        -1,
        -0.99997031688690186
      ],
      "type": "VEC3"
    },
    {
      "bufferView": 1,
      "byteOffset": 6817032,
      "componentType": 5126,
      "count": 65532,
      "max": [
        0,
        0
      ],
      "min": [
        0,
        0
      ],
      "type": "VEC2"
    },
    {
      "bufferView": 0,
      "byteOffset": 15661776,
      "componentType": 5125,
      "count": 286227,
      "max": [
        65531
      ],
      "min": [
        0
      ],
      "type": "SCALAR"
    },
    {
      "bufferView": 2,
      "byteOffset": 22023864,
      "componentType": 5126,
      "count": 65532,
      "max": [
        62.853000640869141,
        69.054901123046875,
        3.3355000019073486
      ],
      "min": [
        -59.815399169921875,
        -58.553501129150391,
        -0.026000000536441803
      ],
      "type": "VEC3"
    },
    {
      "bufferView": 2,
      "byteOffset": 22810248,
      "componentType": 5126,
      "count": 65532,
      "max": [
        1,
        0.99999964237213135,
        0.99997437000274658
      ],
      "min": [
        -0.99999654293060303,
        -0.99999153614044189,
        -0.99996042251586914
      ],
      "type": "VEC3"
    },
    {
      "bufferView": 1,
      "byteOffset": 7341288,
      "componentType": 5126,
      "count": 65532,
      "max": [
        0,
        0
      ],
      "min": [
        0,
        0
      ],
      "type": "VEC2"
    },
    {
      "bufferView": 0,
      "byteOffset": 16806684,
      "componentType": 5125,
      "count": 276177,
      "max": [
        65531
      ],
      "min": [
        0
      ],
      "type": "SCALAR"
    },
    {
      "bufferView": 2,
      "byteOffset": 23596632,
      "componentType": 5126,
      "count": 65533,
      "max": [
        62.55419921875,
        69.013397216796875,
        3.4797000885009766
      ],
      "min": [
        -59.95880126953125,
        -58.768699645996094,
        -0.025699999183416367
      ],
      "type": "VEC3"
    },
    {
      "bufferView": 2,
      "byteOffset": 24383028,
      "componentType": 5126,
      "count": 65533,
      "max": [
        1,
        1,
        0.99998843669891357
      ],
      "min": [
        -0.99999642372131348,
        -1,
        -0.99997079372406006
      ],
      "type": "VEC3"
    },
    {
      "bufferView": 1,
      "byteOffset": 7865544,
      "componentType": 5126,
      "count": 65533,
      "max": [
        0,
        0
      ],
      "min": [
        0,
        0
      ],
      "type": "VEC2"
    },
    {
      "bufferView": 0,
      "byteOffset": 17911392,
      "componentType": 5125,
      "count": 246291,
      "max": [
        65532
      ],
      "min": [
        0
      ],
      "type": "SCALAR"
    },
    {
      "bufferView": 2,
      "byteOffset": 25169424,
      "componentType": 5126,
      "count": 65532,
      "max": [
        62.706298828125,
        69.455497741699219,
        3.3664999008178711
      ],
      "min": [
        -60.071701049804688,
        -59.022800445556641,
        -0.024000000208616257
      ],
      "type": "VEC3"
    },
    {
      "bufferView": 2,
      "byteOffset": 25955808,
      "componentType": 5126,
      "count": 65532,
      "max": [
        1,
        1,
        0.99999344348907471
      ],
      "min": [
        -0.99998080730438232,
        -1,
        -0.99993538856506348
      ],
      "type": "VEC3"
    },
    {
      "bufferView": 1,
      "byteOffset": 8389808,
      "componentType": 5126,
      "count": 65532,
      "max": [
        0,
        0
      ],
      "min": [
        0,
        0
      ],
      "type": "VEC2"
    },
    {
      "bufferView": 0,
      "byteOffset": 18896556,
      "componentType": 5125,
      "count": 133119,
      "max": [
        65531
      ],
      "min": [
        0
      ],
      "type": "SCALAR"
    },
    {
      "bufferView": 2,
      "byteOffset": 26742192,
      "componentType": 5126,
      "count": 65532,
      "max": [
        62.684501647949219,
        69.286697387695312,
        3.3550999164581299
      ],
      "min": [
        -59.842300415039062,
        -58.850898742675781,
        -0.023900000378489494
      ],
      "type": "VEC3"
    },
    {
      "bufferView": 2,
      "byteOffset": 27528576,
      "componentType": 5126,
      "count": 65532,
      "max": [
        1,
        0.99999344348907471,
        0.99998843669891357
      ],
      "min": [
        -0.99998259544372559,
        -0.99995231628417969,
        -0.99998843669891357
      ],
      "type": "VEC3"
    },
    {
      "bufferView": 1,
      "byteOffset": 8914064,
      "componentType": 5126,
      "count": 65532,
      "max": [
        0,
        0
      ],
      "min": [
        0,
        0
      ],
      "type": "VEC2"
    },
    {
      "bufferView": 0,
      "byteOffset": 19429032,
      "componentType": 5125,
      "count": 82056,
      "max": [
        65531
      ],
      "min": [
        0
      ],
      "type": "SCALAR"
    },
    {
      "bufferView": 2,
      "byteOffset": 28314960,
      "componentType": 5126,
      "count": 65534,
      "max": [
        62.609699249267578,
        69.142196655273438,
        3.3496999740600586
      ],
      "min": [
        -59.985801696777344,
        -58.554500579833984,
        -0.026200000196695328
      ],
      "type": "VEC3"
    },
    {
      "bufferView": 2,
      "byteOffset": 29101368,
      "componentType": 5126,
      "count": 65534,
      "max": [
        1,
        0.99999535083770752,
        0.99997246265411377
      ],
      "min": [
        -0.99999940395355225,
        -0.99998259544372559,
        -0.99996984004974365
      ],
      "type": "VEC3"
    },
    {
      "bufferView": 1,
      "byteOffset": 9438320,
      "componentType": 5126,
      "count": 65534,
      "max": [
        0,
        0
      ],
      "min": [
        0,
        0
      ],
      "type": "VEC2"
    },
    {
      "bufferView": 0,
      "byteOffset": 19757256,
      "componentType": 5125,
      "count": 77562,
      "max": [
        65533
      ],
      "min": [
        0
      ],
      "type": "SCALAR"
    },
    {
      "bufferView": 2,
      "byteOffset": 29887776,
      "componentType": 5126,
      "count": 65534,
      "max": [
        63.015499114990234,
        69.622596740722656,
        3.3926999568939209
      ],
      "min": [
        -60.067001342773438,
        -59.120800018310547,
        -0.020800000056624413
      ],
      "type": "VEC3"
    },
    {
      "bufferView": 2,
      "byteOffset": 30674184,
      "componentType": 5126,
      "count": 65534,
      "max": [
        1,
        0.99998569488525391,
        0.99998104572296143
      ],
      "min": [
        -0.99998366832733154,
        -0.99998056888580322,
        -0.99999785423278809
      ],
      "type": "VEC3"
    },
    {
      "bufferView": 1,
      "byteOffset": 9962592,
      "componentType": 5126,
      "count": 65534,
      "max": [
        0,
        0
      ],
      "min": [
        0,
        0
      ],
      "type": "VEC2"
    },
    {
      "bufferView": 0,
      "byteOffset": 20067504,
      "componentType": 5125,
      "count": 75543,
      "max": [
        65533
      ],
      "min": [
        0
      ],
      "type": "SCALAR"
    },
    {
      "bufferView": 2,
      "byteOffset": 31460592,
      "componentType": 5126,
      "count": 65532,
      "max": [
        62.773300170898438,
        69.309303283691406,
        3.5000998973846436
      ],
      "min": [
        -60.062698364257812,
        -58.687000274658203,
        -0.020800000056624413
      ],
      "type": "VEC3"
    },
    {
      "bufferView": 2,
      "byteOffset": 32246976,
      "componentType": 5126,
      "count": 65532,
      "max": [
        1,
        0.99999713897705078,
        0.9999852180480957
      ],
      "min": [
        -0.99995851516723633,
        -0.99999713897705078,
        -0.9999617338180542
      ],
      "type": "VEC3"
    },
    {
      "bufferView": 1,
      "byteOffset": 10486864,
      "componentType": 5126,
      "count": 65532,
      "max": [
        0,
        0
      ],
      "min": [
        0,
        0
      ],
      "type": "VEC2"
    },
    {
      "bufferView": 0,
      "byteOffset": 20369676,
      "componentType": 5125,
      "count": 74376,
      "max": [
        65531
      ],
      "min": [
        0
      ],
      "type": "SCALAR"
    },
    {
      "bufferView": 2,
      "byteOffset": 33033360,
      "componentType": 5126,
      "count": 65534,
      "max": [
        62.702098846435547,
        69.510902404785156,
        3.3668999671936035
      ],
      "min": [
        -60.048301696777344,
        -58.937000274658203,
        -0.022800000384449959
      ],
      "type": "VEC3"
    },
    {
      "bufferView": 2,
      "byteOffset": 33819768,
      "componentType": 5126,
      "count": 65534,
      "max": [
        1,
        0.99999332427978516,
        1
      ],
      "min": [
        -1,
        -0.99999415874481201,
        -0.99998188018798828
      ],
      "type": "VEC3"
    },
    {
      "bufferView": 1,
      "byteOffset": 11011120,
      "componentType": 5126,
      "count": 65534,
      "max": [
        0,
        0
      ],
      "min": [
        0,
        0
      ],
      "type": "VEC2"
    },
    {
      "bufferView": 0,
      "byteOffset": 20667180,
      "componentType": 5125,
      "count": 74130,
      "max": [
        65533
      ],
      "min": [
        0
      ],
      "type": "SCALAR"
    },
    {
      "bufferView": 2,
      "byteOffset": 34606176,
      "componentType": 5126,
      "count": 65534,
      "max": [
        62.815101623535156,
        69.185401916503906,
        3.3573999404907227
      ],
      "min": [
        -60.272499084472656,
        -58.783199310302734,
        -0.024000000208616257
      ],
      "type": "VEC3"
    },
    {
      "bufferView": 2,
      "byteOffset": 35392584,
      "componentType": 5126,
      "count": 65534,
      "max": [
        1,
        0.99991476535797119,
        0.9999995231628418
      ],
      "min": [
        -0.9999992847442627,
        -0.99991476535797119,
        -0.9999995231628418
      ],
      "type": "VEC3"
    },
    {
      "bufferView": 1,
      "byteOffset": 11535392,
      "componentType": 5126,
      "count": 65534,
      "max": [
        0,
        0
      ],
      "min": [
        0,
        0
      ],
      "type": "VEC2"
    },
    {
      "bufferView": 0,
      "byteOffset": 20963700,
      "componentType": 5125,
      "count": 72879,
      "max": [
        65533
      ],
      "min": [
        0
      ],
      "type": "SCALAR"
    },
    {
      "bufferView": 2,
      "byteOffset": 36178992,
      "componentType": 5126,
      "count": 65534,
      "max": [
        62.853000640869141,
        69.166496276855469,
        3.3664999008178711
      ],
      "min": [
        -59.881099700927734,
        -59.904399871826172,
        -0.023900000378489494
      ],
      "type": "VEC3"
    },
    {
      "bufferView": 2,
      "byteOffset": 36965400,
      "componentType": 5126,
      "count": 65534,
      "max": [
        1,
        0.99998152256011963,
        0.99998116493225098
      ],
      "min": [
        -0.9999535083770752,
        -0.99991655349731445,
        -1
      ],
      "type": "VEC3"
    },
    {
      "bufferView": 1,
      "byteOffset": 12059664,
      "componentType": 5126,
      "count": 65534,
      "max": [
        0,
        0
      ],
      "min": [
        0,
        0
      ],
      "type": "VEC2"
    },
    {
      "bufferView": 0,
      "byteOffset": 21255216,
      "componentType": 5125,
      "count": 72867,
      "max": [
        65533
      ],
      "min": [
        0
      ],
      "type": "SCALAR"
    },
    {
      "bufferView": 2,
      "byteOffset": 37751808,
      "componentType": 5126,
      "count": 65533,
      "max": [
        62.815101623535156,
        69.558097839355469,
        3.4525001049041748
      ],
      "min": [
        -60.067001342773438,
        -59.785800933837891,
        -0.021800000220537186
      ],
      "type": "VEC3"
    },
    {
      "bufferView": 2,
      "byteOffset": 38538204,
      "componentType": 5126,
      "count": 65533,
      "max": [
        1,
        0.9999997615814209,
        0.99999558925628662
      ],
      "min": [
        -0.99997270107269287,
        -0.99990880489349365,
        -0.99999558925628662
      ],
      "type": "VEC3"
    },
    {
      "bufferView": 1,
      "byteOffset": 12583936,
      "componentType": 5126,
      "count": 65533,
      "max": [
        0,
        0
      ],
      "min": [
        0,
        0
      ],
      "type": "VEC2"
    },
    {
      "bufferView": 0,
      "byteOffset": 21546684,
      "componentType": 5125,
      "count": 72951,
      "max": [
        65532
      ],
      "min": [
        0
      ],
      "type": "SCALAR"
    },
    {
      "bufferView": 2,
      "byteOffset": 39324600,
      "componentType": 5126,
      "count": 1763,
      "max": [
        61.353599548339844,
        68.598602294921875,
        3.2218999862670898
      ],
      "min": [
        -58.719501495361328,
        -58.270000457763672,
        -0.019899999722838402
      ],
      "type": "VEC3"
    },
    {
      "bufferView": 2,
      "byteOffset": 39345756,
      "componentType": 5126,
      "count": 1763,
      "max": [
        1,
        0.99236226081848145,
        0.99989771842956543
      ],
      "min": [
        -0.99034756422042847,
        -0.99830061197280884,
        -0.99989771842956543
      ],
      "type": "VEC3"
    },
    {
      "bufferView": 1,
      "byteOffset": 13108200,
      "componentType": 5126,
      "count": 1763,
      "max": [
        0,
        0
      ],
      "min": [
        0,
        0
      ],
      "type": "VEC2"
    },
    {
      "bufferView": 0,
      "byteOffset": 21838488,
      "componentType": 5125,
      "count": 1977,
      "max": [
        1762
      ],
      "min": [
        0
      ],
      "type": "SCALAR"
    }
  ],
  "asset": {
    "extras": {
      "author": "misha.yast71 (https://sketchfab.com/misha.yast71)",
      "license": "CC-BY-4.0 (http://creativecommons.org/licenses/by/4.0/)",
      "source": "https://sketchfab.com/3d-models/carpet-8d35017d98124442a7a2983ee5645252",
      "title": "Carpet"
    },
    "generator": "Sketchfab-7.98.1",
    "version": "2.0"
  },
  "bufferViews": [
    {
      "buffer": 0,
      "byteLength": 21846396,
      "byteOffset": 0,
      "name": "floatBufferViews",
      "target": 34963
    },
    {
      "buffer": 0,
      "byteLength": 13122304,
      "byteOffset": 21846396,
      "byteStride": 8,
      "name": "floatBufferViews",
      "target": 34962
    },
    {
      "buffer": 0,
      "byteLength": 39366912,
      "byteOffset": 34968700,
      "byteStride": 12,
      "name": "floatBufferViews",
      "target": 34962
    }
  ],
  "buffers": [
    {
      "byteLength": 74335612,
      "uri": "scene.bin"
    }
  ],
  "images": [
    {
      "uri": "textures/Material__2_baseColor.jpeg"
    }
  ],
  "materials": [
    {
      "doubleSided": true,
      "name": "Material__2",
      "pbrMetallicRoughness": {
        "baseColorFactor": [
          1,
          1,
          1,
          1
        ],
        "baseColorTexture": {
          "index": 0,
          "texCoord": 0
        },
        "metallicFactor": 0,
        "roughnessFactor": 0.59999999999999998
      }
    },
    {
      "doubleSided": true,
      "name": "Material__3",
      "pbrMetallicRoughness": {
        "baseColorFactor": [
          1,
          1,
          1,
          1
        ],
        "baseColorTexture": {
          "index": 0,
          "texCoord": 0
        },
        "metallicFactor": 0,
        "roughnessFactor": 0.59999999999999998
      }
    }
  ],
  "meshes": [
    {
      "primitives": [
        {
          "attributes": {
            "NORMAL": 1,
            "POSITION": 0,
            "TEXCOORD_0": 2
          },
          "indices": 3,
          "material": 0,
          "mode": 4
        }
      ]
    },
    {
      "primitives": [
        {
          "attributes": {
            "NORMAL": 5,
            "POSITION": 4,
            "TEXCOORD_0": 6
          },
          "indices": 7,
          "material": 1,
          "mode": 4
        }
      ]
    },
    {
      "primitives": [
        {
          "attributes": {
            "NORMAL": 9,
            "POSITION": 8,
            "TEXCOORD_0": 10
          },
          "indices": 11,
          "material": 1,
          "mode": 4
        }
      ]
    },
    {
      "primitives": [
        {
          "attributes": {
            "NORMAL": 13,
            "POSITION": 12,
            "TEXCOORD_0": 14
          },
          "indices": 15,
          "material": 1,
          "mode": 4
        }
      ]
    },
    {
      "primitives": [
        {
          "attributes": {
            "NORMAL": 17,
            "POSITION": 16,
            "TEXCOORD_0": 18
          },
          "indices": 19,
          "material": 1,
          "mode": 4
        }
      ]
    },
    {
      "primitives": [
        {
          "attributes": {
            "NORMAL": 21,
            "POSITION": 20,
            "TEXCOORD_0": 22
          },
          "indices": 23,
          "material": 1,
          "mode": 4
        }
      ]
    },
    {
      "primitives": [
        {
          "attributes": {
            "NORMAL": 25,
            "POSITION": 24,
            "TEXCOORD_0": 26
          },
          "indices": 27,
          "material": 1,
          "mode": 4
        }
      ]
    },
    {
      "primitives": [
        {
          "attributes": {
            "NORMAL": 29,
            "POSITION": 28,
            "TEXCOORD_0": 30
          },
          "indices": 31,
          "material": 1,
          "mode": 4
        }
      ]
    },
    {
      "primitives": [
        {
          "attributes": {
            "NORMAL": 33,
            "POSITION": 32,
            "TEXCOORD_0": 34
          },
          "indices": 35,
          "material": 1,
          "mode": 4
        }
      ]
    },
    {
      "primitives": [
        {
          "attributes": {
            "NORMAL": 37,
            "POSITION": 36,
            "TEXCOORD_0": 38
          },
          "indices": 39,
          "material": 1,
          "mode": 4
        }
      ]
    },
    {
      "primitives": [
        {
          "attributes": {
            "NORMAL": 41,
            "POSITION": 40,
            "TEXCOORD_0": 42
          },
          "indices": 43,
          "material": 1,
          "mode": 4
        }
      ]
    },
    {
      "primitives": [
        {
          "attributes": {
            "NORMAL": 45,
            "POSITION": 44,
            "TEXCOORD_0": 46
          },
          "indices": 47,
          "material": 1,
          "mode": 4
        }
      ]
    },
    {
      "primitives": [
        {
          "attributes": {
            "NORMAL": 49,
            "POSITION": 48,
            "TEXCOORD_0": 50
          },
          "indices": 51,
          "material": 1,
          "mode": 4
        }
      ]
    },
    {
      "primitives": [
        {
          "attributes": {
            "NORMAL": 53,
            "POSITION": 52,
            "TEXCOORD_0": 54
          },
          "indices": 55,
          "material": 1,
          "mode": 4
        }
      ]
    },
    {
      "primitives": [
        {
          "attributes": {
            "NORMAL": 57,
            "POSITION": 56,
            "TEXCOORD_0": 58
          },
          "indices": 59,
          "material": 1,
          "mode": 4
        }
      ]
    },
    {
      "primitives": [
        {
          "attributes": {
            "NORMAL": 61,
            "POSITION": 60,
            "TEXCOORD_0": 62
          },
          "indices": 63,
          "material": 1,
          "mode": 4
        }
      ]
    },
    {
      "primitives": [
        {
          "attributes": {
            "NORMAL": 65,
            "POSITION": 64,
            "TEXCOORD_0": 66
          },
          "indices": 67,
          "material": 1,
          "mode": 4
        }
      ]
    },
    {
      "primitives": [
        {
          "attributes": {
            "NORMAL": 69,
            "POSITION": 68,
            "TEXCOORD_0": 70
          },
          "indices": 71,
          "material": 1,
          "mode": 4
        }
      ]
    },
    {
      "primitives": [
        {
          "attributes": {
            "NORMAL": 73,
            "POSITION": 72,
            "TEXCOORD_0": 74
          },
          "indices": 75,
          "material": 1,
          "mode": 4
        }
      ]
    },
    {
      "primitives": [
        {
          "attributes": {
            "NORMAL": 77,
            "POSITION": 76,
            "TEXCOORD_0": 78
          },
          "indices": 79,
          "material": 1,
          "mode": 4
        }
      ]
    },
    {
      "primitives": [
        {
          "attributes": {
            "NORMAL": 81,
            "POSITION": 80,
            "TEXCOORD_0": 82
          },
          "indices": 83,
          "material": 1,
          "mode": 4
        }
      ]
    },
    {
      "primitives": [
        {
          "attributes": {
            "NORMAL": 85,
            "POSITION": 84,
            "TEXCOORD_0": 86
          },
          "indices": 87,
          "material": 1,
          "mode": 4
        }
      ]
    },
    {
      "primitives": [
        {
          "attributes": {
            "NORMAL": 89,
            "POSITION": 88,
            "TEXCOORD_0": 90
          },
          "indices": 91,
          "material": 1,
          "mode": 4
        }
      ]
    },
    {
      "primitives": [
        {
          "attributes": {
            "NORMAL": 93,
            "POSITION": 92,
            "TEXCOORD_0": 94
          },
          "indices": 95,
          "material": 1,
          "mode": 4
        }
      ]
    },
    {
      "primitives": [
        {
          "attributes": {
            "NORMAL": 97,
            "POSITION": 96,
            "TEXCOORD_0": 98
          },
          "indices": 99,
          "material": 1,
          "mode": 4
        }
      ]
    },
    {
      "primitives": [
        {
          "attributes": {
            "NORMAL": 101,
            "POSITION": 100,
            "TEXCOORD_0": 102
          },
          "indices": 103,
          "material": 1,
          "mode": 4
        }
      ]
    },
    {
      "primitives": [
        {
          "attributes": {
            "NORMAL": 105,
            "POSITION": 104,
            "TEXCOORD_0": 106
          },
          "indices": 107,
          "material": 1,
          "mode": 4
        }
      ]
    }
  ],
  "nodes": [
    {
      "children": [
        1
      ],
      "name": "RootNode (gltf orientation matrix)",
      "rotation": [
        -0.70710678118654746,
        -0,
        -0,
        0.70710678118654757
      ]
    },
    {
      "children": [
        2
      ],
      "name": "RootNode (model correction matrix)"
    },
    {
      "children": [
        3,
        4,
        5,
        6,
        7,
        8,
        9,
        10,
        11,
        12,
        13,
        14,
        15,
        16,
        17,
        18,
        19,
        20,
        21,
        22,
        23,
        24,
        25,
        26,
        27,
        28,
        29
      ],
      "name": "carpetlow.obj.cleaner.materialmerger.gles"
    },
    {
      "mesh": 0,
      "name": ""
    },
    {
      "mesh": 1,
      "name": ""
    },
    {
      "mesh": 2,
      "name": ""
    },
    {
      "mesh": 3,
      "name": ""
    },
    {
      "mesh": 4,
      "name": ""
    },
    {
      "mesh": 5,
      "name": ""
    },
    {
      "mesh": 6,
      "name": ""
    },
    {
      "mesh": 7,
      "name": ""
    },
    {
      "mesh": 8,
      "name": ""
    },
    {
      "mesh": 9,
      "name": ""
    },
    {
      "mesh": 10,
      "name": ""
    },
    {
      "mesh": 11,
      "name": ""
    },
    {
      "mesh": 12,
      "name": ""
    },
    {
      "mesh": 13,
      "name": ""
    },
    {
      "mesh": 14,
      "name": ""
    },
    {
      "mesh": 15,
      "name": ""
    },
    {
      "mesh": 16,
      "name": ""
    },
    {
      "mesh": 17,
      "name": ""
    },
    {
      "mesh": 18,
      "name": ""
    },
    {
      "mesh": 19,
      "name": ""
    },
    {
      "mesh": 20,
      "name": ""
    },
    {
      "mesh": 21,
      "name": ""
    },
    {
      "mesh": 22,
      "name": ""
    },
    {
      "mesh": 23,
      "name": ""
    },
    {
      "mesh": 24,
      "name": ""
    },
    {
      "mesh": 25,
      "name": ""
    },
    {
      "mesh": 26,
      "name": ""
    }
  ],
  "samplers": [
    {
      "magFilter": 9729,
      "minFilter": 9987,
      "wrapS": 10497,
      "wrapT": 10497
    }
  ],
  "scene": 0,
  "scenes": [
    {
      "name": "OSG_Scene",
      "nodes": [
        0
      ]
    }
  ],
  "textures": [
    {
      "sampler": 0,
      "source": 0
    }
  ]
}

